^E:\UNIVERSITY\АЛГОРИТМИ І СТРУКТУРИ ДАНИХ\TASK_01\TASK_03\TASK_03.CPP
E:\UNIVERSITY\Алгоритми і структури даних\TASK_01\TASK_03\X64\DEBUG\VC143.PDB
E:\UNIVERSITY\Алгоритми і структури даних\TASK_01\TASK_03\X64\DEBUG\VC143.IDB
E:\UNIVERSITY\Алгоритми і структури даних\TASK_01\TASK_03\X64\DEBUG\TASK_03.OBJ
