^E:\UNIVERSITY\АЛГОРИТМИ І СТРУКТУРИ ДАНИХ\TASK_01\TASK_03\X64\DEBUG\TASK_03.OBJ
E:\UNIVERSITY\Алгоритми і структури даних\TASK_01\X64\DEBUG\TASK_03.EXE
E:\UNIVERSITY\Алгоритми і структури даних\TASK_01\X64\DEBUG\TASK_03.PDB
